,params,score
31,"{'num_leaves': 63, 'colsample_bytree': 0.7, 'lambda_l1': 1, 'learning_rate': 0.02, 'lambda_l2': 2, 'min_split_gain': 0, 'subsample': 0.8, 'min_data_in_leaf': 20, 'max_bin': 127, 'objective': 'binary', 'max_depth': 8, 'min_sum_hessian_in_leaf': 0.01}",0.643195772583
185,"{'num_leaves': 63, 'colsample_bytree': 0.7, 'lambda_l1': 1, 'learning_rate': 0.02, 'lambda_l2': 1, 'min_split_gain': 0.1, 'subsample': 0.8, 'min_data_in_leaf': 20, 'max_bin': 255, 'objective': 'binary', 'max_depth': 8, 'min_sum_hessian_in_leaf': 0.01}",0.642950068802
170,"{'num_leaves': 63, 'colsample_bytree': 0.7, 'lambda_l1': 1, 'learning_rate': 0.02, 'lambda_l2': 1, 'min_split_gain': 0.1, 'subsample': 0.8, 'min_data_in_leaf': 20, 'max_bin': 255, 'objective': 'binary', 'max_depth': 8, 'min_sum_hessian_in_leaf': 0.001}",0.642904698419
164,"{'num_leaves': 63, 'colsample_bytree': 0.7, 'lambda_l1': 0, 'learning_rate': 0.02, 'lambda_l2': 2, 'min_split_gain': 0, 'subsample': 0.8, 'min_data_in_leaf': 20, 'max_bin': 127, 'objective': 'binary', 'max_depth': 6, 'min_sum_hessian_in_leaf': 0.001}",0.642875545478
122,"{'num_leaves': 63, 'colsample_bytree': 0.7, 'lambda_l1': 1, 'learning_rate': 0.02, 'lambda_l2': 2, 'min_split_gain': 0, 'subsample': 0.8, 'min_data_in_leaf': 20, 'max_bin': 255, 'objective': 'binary', 'max_depth': 8, 'min_sum_hessian_in_leaf': 0.001}",0.642781970467
97,"{'num_leaves': 63, 'colsample_bytree': 0.7, 'lambda_l1': 1, 'learning_rate': 0.02, 'lambda_l2': 2, 'min_split_gain': 0, 'subsample': 0.8, 'min_data_in_leaf': 20, 'max_bin': 255, 'objective': 'binary', 'max_depth': 6, 'min_sum_hessian_in_leaf': 0.01}",0.642778605666
190,"{'num_leaves': 63, 'colsample_bytree': 0.7, 'lambda_l1': 1, 'learning_rate': 0.02, 'lambda_l2': 1, 'min_split_gain': 0, 'subsample': 0.8, 'min_data_in_leaf': 20, 'max_bin': 127, 'objective': 'binary', 'max_depth': -1, 'min_sum_hessian_in_leaf': 0.001}",0.642749625756
80,"{'num_leaves': 63, 'colsample_bytree': 0.7, 'lambda_l1': 1, 'learning_rate': 0.02, 'lambda_l2': 1, 'min_split_gain': 0, 'subsample': 0.8, 'min_data_in_leaf': 20, 'max_bin': 255, 'objective': 'binary', 'max_depth': 6, 'min_sum_hessian_in_leaf': 0.001}",0.642694724527
118,"{'num_leaves': 127, 'colsample_bytree': 0.7, 'lambda_l1': 0, 'learning_rate': 0.02, 'lambda_l2': 2, 'min_split_gain': 0.1, 'subsample': 0.8, 'min_data_in_leaf': 20, 'max_bin': 127, 'objective': 'binary', 'max_depth': 6, 'min_sum_hessian_in_leaf': 0.001}",0.64267583969
130,"{'num_leaves': 63, 'colsample_bytree': 0.7, 'lambda_l1': 0, 'learning_rate': 0.02, 'lambda_l2': 2, 'min_split_gain': 0, 'subsample': 0.8, 'min_data_in_leaf': 20, 'max_bin': 255, 'objective': 'binary', 'max_depth': 8, 'min_sum_hessian_in_leaf': 0.001}",0.642649870227
108,"{'num_leaves': 63, 'colsample_bytree': 0.7, 'lambda_l1': 0, 'learning_rate': 0.02, 'lambda_l2': 2, 'min_split_gain': 0, 'subsample': 0.8, 'min_data_in_leaf': 20, 'max_bin': 127, 'objective': 'binary', 'max_depth': -1, 'min_sum_hessian_in_leaf': 0.001}",0.642626554447
151,"{'num_leaves': 127, 'colsample_bytree': 0.7, 'lambda_l1': 1, 'learning_rate': 0.02, 'lambda_l2': 2, 'min_split_gain': 0.1, 'subsample': 0.8, 'min_data_in_leaf': 20, 'max_bin': 127, 'objective': 'binary', 'max_depth': 6, 'min_sum_hessian_in_leaf': 0.01}",0.642623294908
26,"{'num_leaves': 127, 'colsample_bytree': 0.7, 'lambda_l1': 1, 'learning_rate': 0.02, 'lambda_l2': 2, 'min_split_gain': 0.1, 'subsample': 0.8, 'min_data_in_leaf': 20, 'max_bin': 255, 'objective': 'binary', 'max_depth': 6, 'min_sum_hessian_in_leaf': 0.001}",0.642619770995
152,"{'num_leaves': 127, 'colsample_bytree': 0.7, 'lambda_l1': 0, 'learning_rate': 0.02, 'lambda_l2': 1, 'min_split_gain': 0.1, 'subsample': 0.8, 'min_data_in_leaf': 20, 'max_bin': 127, 'objective': 'binary', 'max_depth': 6, 'min_sum_hessian_in_leaf': 0.01}",0.642609789397
154,"{'num_leaves': 63, 'colsample_bytree': 0.7, 'lambda_l1': 1, 'learning_rate': 0.02, 'lambda_l2': 2, 'min_split_gain': 0, 'subsample': 0.8, 'min_data_in_leaf': 20, 'max_bin': 255, 'objective': 'binary', 'max_depth': -1, 'min_sum_hessian_in_leaf': 0.01}",0.642583869605
27,"{'num_leaves': 63, 'colsample_bytree': 0.7, 'lambda_l1': 1, 'learning_rate': 0.02, 'lambda_l2': 1, 'min_split_gain': 0, 'subsample': 0.8, 'min_data_in_leaf': 20, 'max_bin': 255, 'objective': 'binary', 'max_depth': 8, 'min_sum_hessian_in_leaf': 0.001}",0.642573301071
179,"{'num_leaves': 127, 'colsample_bytree': 0.7, 'lambda_l1': 1, 'learning_rate': 0.02, 'lambda_l2': 2, 'min_split_gain': 0.1, 'subsample': 0.8, 'min_data_in_leaf': 20, 'max_bin': 127, 'objective': 'binary', 'max_depth': 8, 'min_sum_hessian_in_leaf': 0.001}",0.642568134587
72,"{'num_leaves': 63, 'colsample_bytree': 0.7, 'lambda_l1': 1, 'learning_rate': 0.02, 'lambda_l2': 2, 'min_split_gain': 0, 'subsample': 0.8, 'min_data_in_leaf': 20, 'max_bin': 255, 'objective': 'binary', 'max_depth': 6, 'min_sum_hessian_in_leaf': 0.001}",0.642534145249
9,"{'num_leaves': 63, 'colsample_bytree': 0.7, 'lambda_l1': 0, 'learning_rate': 0.02, 'lambda_l2': 2, 'min_split_gain': 0, 'subsample': 0.8, 'min_data_in_leaf': 20, 'max_bin': 127, 'objective': 'binary', 'max_depth': 8, 'min_sum_hessian_in_leaf': 0.001}",0.642531999969
89,"{'num_leaves': 127, 'colsample_bytree': 0.7, 'lambda_l1': 1, 'learning_rate': 0.02, 'lambda_l2': 1, 'min_split_gain': 0.1, 'subsample': 0.8, 'min_data_in_leaf': 20, 'max_bin': 255, 'objective': 'binary', 'max_depth': 6, 'min_sum_hessian_in_leaf': 0.01}",0.642530504758
169,"{'num_leaves': 127, 'colsample_bytree': 0.7, 'lambda_l1': 1, 'learning_rate': 0.02, 'lambda_l2': 2, 'min_split_gain': 0, 'subsample': 0.8, 'min_data_in_leaf': 20, 'max_bin': 127, 'objective': 'binary', 'max_depth': 6, 'min_sum_hessian_in_leaf': 0.01}",0.642513516938
158,"{'num_leaves': 63, 'colsample_bytree': 0.7, 'lambda_l1': 0, 'learning_rate': 0.02, 'lambda_l2': 2, 'min_split_gain': 0.1, 'subsample': 0.8, 'min_data_in_leaf': 20, 'max_bin': 255, 'objective': 'binary', 'max_depth': 6, 'min_sum_hessian_in_leaf': 0.001}",0.64249606526
98,"{'num_leaves': 63, 'colsample_bytree': 0.7, 'lambda_l1': 1, 'learning_rate': 0.02, 'lambda_l2': 2, 'min_split_gain': 0.1, 'subsample': 0.8, 'min_data_in_leaf': 20, 'max_bin': 127, 'objective': 'binary', 'max_depth': -1, 'min_sum_hessian_in_leaf': 0.001}",0.64248471897
173,"{'num_leaves': 63, 'colsample_bytree': 0.7, 'lambda_l1': 0, 'learning_rate': 0.02, 'lambda_l2': 2, 'min_split_gain': 0.1, 'subsample': 0.8, 'min_data_in_leaf': 20, 'max_bin': 255, 'objective': 'binary', 'max_depth': 8, 'min_sum_hessian_in_leaf': 0.001}",0.642480986847
116,"{'num_leaves': 127, 'colsample_bytree': 0.7, 'lambda_l1': 0, 'learning_rate': 0.02, 'lambda_l2': 1, 'min_split_gain': 0, 'subsample': 0.8, 'min_data_in_leaf': 20, 'max_bin': 255, 'objective': 'binary', 'max_depth': 6, 'min_sum_hessian_in_leaf': 0.01}",0.642480270114
2,"{'num_leaves': 127, 'colsample_bytree': 0.7, 'lambda_l1': 0, 'learning_rate': 0.02, 'lambda_l2': 2, 'min_split_gain': 0.1, 'subsample': 0.8, 'min_data_in_leaf': 20, 'max_bin': 255, 'objective': 'binary', 'max_depth': 6, 'min_sum_hessian_in_leaf': 0.01}",0.642479811266
110,"{'num_leaves': 63, 'colsample_bytree': 0.7, 'lambda_l1': 1, 'learning_rate': 0.02, 'lambda_l2': 1, 'min_split_gain': 0, 'subsample': 0.8, 'min_data_in_leaf': 20, 'max_bin': 255, 'objective': 'binary', 'max_depth': 6, 'min_sum_hessian_in_leaf': 0.01}",0.642478809204
18,"{'num_leaves': 63, 'colsample_bytree': 0.7, 'lambda_l1': 1, 'learning_rate': 0.02, 'lambda_l2': 2, 'min_split_gain': 0, 'subsample': 0.8, 'min_data_in_leaf': 20, 'max_bin': 127, 'objective': 'binary', 'max_depth': 8, 'min_sum_hessian_in_leaf': 0.001}",0.64247834494
146,"{'num_leaves': 63, 'colsample_bytree': 0.7, 'lambda_l1': 1, 'learning_rate': 0.02, 'lambda_l2': 2, 'min_split_gain': 0.1, 'subsample': 0.8, 'min_data_in_leaf': 20, 'max_bin': 127, 'objective': 'binary', 'max_depth': 6, 'min_sum_hessian_in_leaf': 0.001}",0.64247697539
40,"{'num_leaves': 127, 'colsample_bytree': 0.7, 'lambda_l1': 1, 'learning_rate': 0.02, 'lambda_l2': 1, 'min_split_gain': 0, 'subsample': 0.8, 'min_data_in_leaf': 20, 'max_bin': 127, 'objective': 'binary', 'max_depth': 8, 'min_sum_hessian_in_leaf': 0.001}",0.642456256745
114,"{'num_leaves': 63, 'colsample_bytree': 0.7, 'lambda_l1': 1, 'learning_rate': 0.02, 'lambda_l2': 2, 'min_split_gain': 0.1, 'subsample': 0.8, 'min_data_in_leaf': 20, 'max_bin': 127, 'objective': 'binary', 'max_depth': -1, 'min_sum_hessian_in_leaf': 0.01}",0.642448694635
153,"{'num_leaves': 63, 'colsample_bytree': 0.7, 'lambda_l1': 1, 'learning_rate': 0.02, 'lambda_l2': 2, 'min_split_gain': 0, 'subsample': 0.8, 'min_data_in_leaf': 20, 'max_bin': 127, 'objective': 'binary', 'max_depth': 6, 'min_sum_hessian_in_leaf': 0.01}",0.642446216711
71,"{'num_leaves': 127, 'colsample_bytree': 0.7, 'lambda_l1': 0, 'learning_rate': 0.02, 'lambda_l2': 1, 'min_split_gain': 0.1, 'subsample': 0.8, 'min_data_in_leaf': 20, 'max_bin': 255, 'objective': 'binary', 'max_depth': 6, 'min_sum_hessian_in_leaf': 0.01}",0.642424671084
29,"{'num_leaves': 63, 'colsample_bytree': 0.7, 'lambda_l1': 0, 'learning_rate': 0.02, 'lambda_l2': 2, 'min_split_gain': 0.1, 'subsample': 0.8, 'min_data_in_leaf': 20, 'max_bin': 255, 'objective': 'binary', 'max_depth': 8, 'min_sum_hessian_in_leaf': 0.01}",0.642420903367
37,"{'num_leaves': 63, 'colsample_bytree': 0.7, 'lambda_l1': 1, 'learning_rate': 0.02, 'lambda_l2': 2, 'min_split_gain': 0.1, 'subsample': 0.8, 'min_data_in_leaf': 20, 'max_bin': 255, 'objective': 'binary', 'max_depth': 6, 'min_sum_hessian_in_leaf': 0.01}",0.642413095243
119,"{'num_leaves': 127, 'colsample_bytree': 0.7, 'lambda_l1': 1, 'learning_rate': 0.02, 'lambda_l2': 2, 'min_split_gain': 0.1, 'subsample': 0.8, 'min_data_in_leaf': 20, 'max_bin': 127, 'objective': 'binary', 'max_depth': 6, 'min_sum_hessian_in_leaf': 0.001}",0.642409674451
4,"{'num_leaves': 127, 'colsample_bytree': 0.7, 'lambda_l1': 0, 'learning_rate': 0.02, 'lambda_l2': 2, 'min_split_gain': 0.1, 'subsample': 0.8, 'min_data_in_leaf': 20, 'max_bin': 255, 'objective': 'binary', 'max_depth': 8, 'min_sum_hessian_in_leaf': 0.001}",0.642379384479
138,"{'num_leaves': 63, 'colsample_bytree': 0.7, 'lambda_l1': 1, 'learning_rate': 0.02, 'lambda_l2': 1, 'min_split_gain': 0, 'subsample': 0.8, 'min_data_in_leaf': 20, 'max_bin': 127, 'objective': 'binary', 'max_depth': 8, 'min_sum_hessian_in_leaf': 0.001}",0.642366401161
7,"{'num_leaves': 127, 'colsample_bytree': 0.7, 'lambda_l1': 1, 'learning_rate': 0.02, 'lambda_l2': 2, 'min_split_gain': 0, 'subsample': 0.8, 'min_data_in_leaf': 20, 'max_bin': 255, 'objective': 'binary', 'max_depth': 8, 'min_sum_hessian_in_leaf': 0.001}",0.642359152512
59,"{'num_leaves': 63, 'colsample_bytree': 0.7, 'lambda_l1': 0, 'learning_rate': 0.02, 'lambda_l2': 2, 'min_split_gain': 0, 'subsample': 0.8, 'min_data_in_leaf': 20, 'max_bin': 127, 'objective': 'binary', 'max_depth': 6, 'min_sum_hessian_in_leaf': 0.01}",0.642358980318
90,"{'num_leaves': 127, 'colsample_bytree': 0.7, 'lambda_l1': 1, 'learning_rate': 0.02, 'lambda_l2': 2, 'min_split_gain': 0, 'subsample': 0.8, 'min_data_in_leaf': 20, 'max_bin': 255, 'objective': 'binary', 'max_depth': 6, 'min_sum_hessian_in_leaf': 0.01}",0.64234613988
87,"{'num_leaves': 127, 'colsample_bytree': 0.7, 'lambda_l1': 1, 'learning_rate': 0.02, 'lambda_l2': 1, 'min_split_gain': 0, 'subsample': 0.8, 'min_data_in_leaf': 20, 'max_bin': 127, 'objective': 'binary', 'max_depth': 6, 'min_sum_hessian_in_leaf': 0.01}",0.642334606956
77,"{'num_leaves': 63, 'colsample_bytree': 0.7, 'lambda_l1': 0, 'learning_rate': 0.02, 'lambda_l2': 2, 'min_split_gain': 0.1, 'subsample': 0.8, 'min_data_in_leaf': 20, 'max_bin': 255, 'objective': 'binary', 'max_depth': 6, 'min_sum_hessian_in_leaf': 0.01}",0.642333890339
49,"{'num_leaves': 63, 'colsample_bytree': 0.7, 'lambda_l1': 1, 'learning_rate': 0.02, 'lambda_l2': 2, 'min_split_gain': 0, 'subsample': 0.8, 'min_data_in_leaf': 20, 'max_bin': 255, 'objective': 'binary', 'max_depth': 8, 'min_sum_hessian_in_leaf': 0.01}",0.642313085489
79,"{'num_leaves': 63, 'colsample_bytree': 0.7, 'lambda_l1': 0, 'learning_rate': 0.02, 'lambda_l2': 2, 'min_split_gain': 0.1, 'subsample': 0.8, 'min_data_in_leaf': 20, 'max_bin': 127, 'objective': 'binary', 'max_depth': -1, 'min_sum_hessian_in_leaf': 0.001}",0.642311471558
23,"{'num_leaves': 127, 'colsample_bytree': 0.7, 'lambda_l1': 1, 'learning_rate': 0.02, 'lambda_l2': 1, 'min_split_gain': 0, 'subsample': 0.8, 'min_data_in_leaf': 20, 'max_bin': 127, 'objective': 'binary', 'max_depth': 6, 'min_sum_hessian_in_leaf': 0.001}",0.642307305093
19,"{'num_leaves': 63, 'colsample_bytree': 0.7, 'lambda_l1': 0, 'learning_rate': 0.02, 'lambda_l2': 2, 'min_split_gain': 0, 'subsample': 0.8, 'min_data_in_leaf': 20, 'max_bin': 255, 'objective': 'binary', 'max_depth': 6, 'min_sum_hessian_in_leaf': 0.01}",0.642297831881
95,"{'num_leaves': 63, 'colsample_bytree': 0.7, 'lambda_l1': 1, 'learning_rate': 0.02, 'lambda_l2': 1, 'min_split_gain': 0, 'subsample': 0.8, 'min_data_in_leaf': 20, 'max_bin': 127, 'objective': 'binary', 'max_depth': 6, 'min_sum_hessian_in_leaf': 0.01}",0.642296607768
65,"{'num_leaves': 63, 'colsample_bytree': 0.7, 'lambda_l1': 1, 'learning_rate': 0.02, 'lambda_l2': 2, 'min_split_gain': 0, 'subsample': 0.8, 'min_data_in_leaf': 20, 'max_bin': 127, 'objective': 'binary', 'max_depth': -1, 'min_sum_hessian_in_leaf': 0.01}",0.642288984192
58,"{'num_leaves': 127, 'colsample_bytree': 0.7, 'lambda_l1': 0, 'learning_rate': 0.02, 'lambda_l2': 2, 'min_split_gain': 0, 'subsample': 0.8, 'min_data_in_leaf': 20, 'max_bin': 255, 'objective': 'binary', 'max_depth': 6, 'min_sum_hessian_in_leaf': 0.01}",0.642280677622
10,"{'num_leaves': 127, 'colsample_bytree': 0.7, 'lambda_l1': 0, 'learning_rate': 0.02, 'lambda_l2': 1, 'min_split_gain': 0.1, 'subsample': 0.8, 'min_data_in_leaf': 20, 'max_bin': 127, 'objective': 'binary', 'max_depth': 6, 'min_sum_hessian_in_leaf': 0.001}",0.642276713195
81,"{'num_leaves': 63, 'colsample_bytree': 0.7, 'lambda_l1': 1, 'learning_rate': 0.02, 'lambda_l2': 1, 'min_split_gain': 0.1, 'subsample': 0.8, 'min_data_in_leaf': 20, 'max_bin': 255, 'objective': 'binary', 'max_depth': -1, 'min_sum_hessian_in_leaf': 0.01}",0.64227227681
3,"{'num_leaves': 63, 'colsample_bytree': 0.7, 'lambda_l1': 1, 'learning_rate': 0.02, 'lambda_l2': 1, 'min_split_gain': 0.1, 'subsample': 0.8, 'min_data_in_leaf': 20, 'max_bin': 127, 'objective': 'binary', 'max_depth': 8, 'min_sum_hessian_in_leaf': 0.001}",0.642265087944
109,"{'num_leaves': 63, 'colsample_bytree': 0.7, 'lambda_l1': 1, 'learning_rate': 0.02, 'lambda_l2': 2, 'min_split_gain': 0.1, 'subsample': 0.8, 'min_data_in_leaf': 20, 'max_bin': 255, 'objective': 'binary', 'max_depth': 8, 'min_sum_hessian_in_leaf': 0.01}",0.642263456174
124,"{'num_leaves': 63, 'colsample_bytree': 0.7, 'lambda_l1': 1, 'learning_rate': 0.02, 'lambda_l2': 1, 'min_split_gain': 0.1, 'subsample': 0.8, 'min_data_in_leaf': 20, 'max_bin': 255, 'objective': 'binary', 'max_depth': 6, 'min_sum_hessian_in_leaf': 0.001}",0.642254103536
106,"{'num_leaves': 63, 'colsample_bytree': 0.7, 'lambda_l1': 0, 'learning_rate': 0.02, 'lambda_l2': 2, 'min_split_gain': 0, 'subsample': 0.8, 'min_data_in_leaf': 20, 'max_bin': 255, 'objective': 'binary', 'max_depth': 6, 'min_sum_hessian_in_leaf': 0.001}",0.642252379228
147,"{'num_leaves': 63, 'colsample_bytree': 0.7, 'lambda_l1': 1, 'learning_rate': 0.02, 'lambda_l2': 1, 'min_split_gain': 0, 'subsample': 0.8, 'min_data_in_leaf': 20, 'max_bin': 127, 'objective': 'binary', 'max_depth': 6, 'min_sum_hessian_in_leaf': 0.001}",0.642249576052
161,"{'num_leaves': 63, 'colsample_bytree': 0.7, 'lambda_l1': 1, 'learning_rate': 0.02, 'lambda_l2': 2, 'min_split_gain': 0, 'subsample': 0.8, 'min_data_in_leaf': 20, 'max_bin': 127, 'objective': 'binary', 'max_depth': -1, 'min_sum_hessian_in_leaf': 0.001}",0.642240987091
155,"{'num_leaves': 127, 'colsample_bytree': 0.7, 'lambda_l1': 1, 'learning_rate': 0.02, 'lambda_l2': 1, 'min_split_gain': 0, 'subsample': 0.8, 'min_data_in_leaf': 20, 'max_bin': 255, 'objective': 'binary', 'max_depth': 6, 'min_sum_hessian_in_leaf': 0.01}",0.642234587902
136,"{'num_leaves': 63, 'colsample_bytree': 0.7, 'lambda_l1': 0, 'learning_rate': 0.02, 'lambda_l2': 2, 'min_split_gain': 0, 'subsample': 0.8, 'min_data_in_leaf': 20, 'max_bin': 255, 'objective': 'binary', 'max_depth': -1, 'min_sum_hessian_in_leaf': 0.01}",0.642224933682
171,"{'num_leaves': 63, 'colsample_bytree': 0.7, 'lambda_l1': 0, 'learning_rate': 0.02, 'lambda_l2': 2, 'min_split_gain': 0, 'subsample': 0.8, 'min_data_in_leaf': 20, 'max_bin': 127, 'objective': 'binary', 'max_depth': -1, 'min_sum_hessian_in_leaf': 0.01}",0.642223717092
145,"{'num_leaves': 63, 'colsample_bytree': 0.7, 'lambda_l1': 1, 'learning_rate': 0.02, 'lambda_l2': 2, 'min_split_gain': 0.1, 'subsample': 0.8, 'min_data_in_leaf': 20, 'max_bin': 255, 'objective': 'binary', 'max_depth': 6, 'min_sum_hessian_in_leaf': 0.001}",0.642209518567
8,"{'num_leaves': 63, 'colsample_bytree': 0.7, 'lambda_l1': 0, 'learning_rate': 0.02, 'lambda_l2': 2, 'min_split_gain': 0.1, 'subsample': 0.8, 'min_data_in_leaf': 20, 'max_bin': 127, 'objective': 'binary', 'max_depth': -1, 'min_sum_hessian_in_leaf': 0.01}",0.642198744701
15,"{'num_leaves': 63, 'colsample_bytree': 0.7, 'lambda_l1': 0, 'learning_rate': 0.02, 'lambda_l2': 2, 'min_split_gain': 0.1, 'subsample': 0.8, 'min_data_in_leaf': 20, 'max_bin': 255, 'objective': 'binary', 'max_depth': -1, 'min_sum_hessian_in_leaf': 0.01}",0.642190604819
86,"{'num_leaves': 63, 'colsample_bytree': 0.7, 'lambda_l1': 1, 'learning_rate': 0.02, 'lambda_l2': 1, 'min_split_gain': 0.1, 'subsample': 0.8, 'min_data_in_leaf': 20, 'max_bin': 127, 'objective': 'binary', 'max_depth': 6, 'min_sum_hessian_in_leaf': 0.01}",0.64217746771
133,"{'num_leaves': 63, 'colsample_bytree': 0.7, 'lambda_l1': 1, 'learning_rate': 0.02, 'lambda_l2': 2, 'min_split_gain': 0.1, 'subsample': 0.8, 'min_data_in_leaf': 20, 'max_bin': 127, 'objective': 'binary', 'max_depth': 8, 'min_sum_hessian_in_leaf': 0.001}",0.642174588836
61,"{'num_leaves': 127, 'colsample_bytree': 0.7, 'lambda_l1': 1, 'learning_rate': 0.02, 'lambda_l2': 2, 'min_split_gain': 0.1, 'subsample': 0.8, 'min_data_in_leaf': 20, 'max_bin': 255, 'objective': 'binary', 'max_depth': 8, 'min_sum_hessian_in_leaf': 0.01}",0.642161682581
62,"{'num_leaves': 127, 'colsample_bytree': 0.7, 'lambda_l1': 1, 'learning_rate': 0.02, 'lambda_l2': 2, 'min_split_gain': 0.1, 'subsample': 0.8, 'min_data_in_leaf': 20, 'max_bin': 255, 'objective': 'binary', 'max_depth': -1, 'min_sum_hessian_in_leaf': 0.001}",0.642158009042
178,"{'num_leaves': 127, 'colsample_bytree': 0.7, 'lambda_l1': 1, 'learning_rate': 0.02, 'lambda_l2': 1, 'min_split_gain': 0.1, 'subsample': 0.8, 'min_data_in_leaf': 20, 'max_bin': 127, 'objective': 'binary', 'max_depth': 8, 'min_sum_hessian_in_leaf': 0.001}",0.642150336967
132,"{'num_leaves': 63, 'colsample_bytree': 0.7, 'lambda_l1': 1, 'learning_rate': 0.02, 'lambda_l2': 1, 'min_split_gain': 0.1, 'subsample': 0.8, 'min_data_in_leaf': 20, 'max_bin': 127, 'objective': 'binary', 'max_depth': -1, 'min_sum_hessian_in_leaf': 0.01}",0.642143982872
35,"{'num_leaves': 127, 'colsample_bytree': 0.7, 'lambda_l1': 1, 'learning_rate': 0.02, 'lambda_l2': 2, 'min_split_gain': 0, 'subsample': 0.8, 'min_data_in_leaf': 20, 'max_bin': 127, 'objective': 'binary', 'max_depth': -1, 'min_sum_hessian_in_leaf': 0.01}",0.642142050729
33,"{'num_leaves': 63, 'colsample_bytree': 0.7, 'lambda_l1': 1, 'learning_rate': 0.02, 'lambda_l2': 1, 'min_split_gain': 0, 'subsample': 0.8, 'min_data_in_leaf': 20, 'max_bin': 255, 'objective': 'binary', 'max_depth': -1, 'min_sum_hessian_in_leaf': 0.001}",0.642141080063
30,"{'num_leaves': 63, 'colsample_bytree': 0.7, 'lambda_l1': 1, 'learning_rate': 0.02, 'lambda_l2': 1, 'min_split_gain': 0, 'subsample': 0.8, 'min_data_in_leaf': 20, 'max_bin': 255, 'objective': 'binary', 'max_depth': 8, 'min_sum_hessian_in_leaf': 0.01}",0.64213986069
134,"{'num_leaves': 127, 'colsample_bytree': 0.7, 'lambda_l1': 1, 'learning_rate': 0.02, 'lambda_l2': 2, 'min_split_gain': 0.1, 'subsample': 0.8, 'min_data_in_leaf': 20, 'max_bin': 255, 'objective': 'binary', 'max_depth': 6, 'min_sum_hessian_in_leaf': 0.01}",0.642129552834
53,"{'num_leaves': 127, 'colsample_bytree': 0.7, 'lambda_l1': 1, 'learning_rate': 0.02, 'lambda_l2': 1, 'min_split_gain': 0.1, 'subsample': 0.8, 'min_data_in_leaf': 20, 'max_bin': 255, 'objective': 'binary', 'max_depth': -1, 'min_sum_hessian_in_leaf': 0.001}",0.64212750783
142,"{'num_leaves': 63, 'colsample_bytree': 0.7, 'lambda_l1': 0, 'learning_rate': 0.02, 'lambda_l2': 2, 'min_split_gain': 0.1, 'subsample': 0.8, 'min_data_in_leaf': 20, 'max_bin': 127, 'objective': 'binary', 'max_depth': 6, 'min_sum_hessian_in_leaf': 0.001}",0.642124952505
186,"{'num_leaves': 127, 'colsample_bytree': 0.7, 'lambda_l1': 0, 'learning_rate': 0.02, 'lambda_l2': 2, 'min_split_gain': 0.1, 'subsample': 0.8, 'min_data_in_leaf': 20, 'max_bin': 127, 'objective': 'binary', 'max_depth': 6, 'min_sum_hessian_in_leaf': 0.01}",0.642096358444
157,"{'num_leaves': 127, 'colsample_bytree': 0.7, 'lambda_l1': 1, 'learning_rate': 0.02, 'lambda_l2': 1, 'min_split_gain': 0, 'subsample': 0.8, 'min_data_in_leaf': 20, 'max_bin': 127, 'objective': 'binary', 'max_depth': 8, 'min_sum_hessian_in_leaf': 0.01}",0.642087876406
117,"{'num_leaves': 127, 'colsample_bytree': 0.7, 'lambda_l1': 0, 'learning_rate': 0.02, 'lambda_l2': 1, 'min_split_gain': 0.1, 'subsample': 0.8, 'min_data_in_leaf': 20, 'max_bin': 255, 'objective': 'binary', 'max_depth': 8, 'min_sum_hessian_in_leaf': 0.01}",0.642068706256
60,"{'num_leaves': 127, 'colsample_bytree': 0.7, 'lambda_l1': 1, 'learning_rate': 0.02, 'lambda_l2': 1, 'min_split_gain': 0.1, 'subsample': 0.8, 'min_data_in_leaf': 20, 'max_bin': 127, 'objective': 'binary', 'max_depth': 6, 'min_sum_hessian_in_leaf': 0.001}",0.642053801518
128,"{'num_leaves': 127, 'colsample_bytree': 0.7, 'lambda_l1': 0, 'learning_rate': 0.02, 'lambda_l2': 2, 'min_split_gain': 0, 'subsample': 0.8, 'min_data_in_leaf': 20, 'max_bin': 255, 'objective': 'binary', 'max_depth': 6, 'min_sum_hessian_in_leaf': 0.001}",0.642049487098
183,"{'num_leaves': 63, 'colsample_bytree': 0.7, 'lambda_l1': 0, 'learning_rate': 0.02, 'lambda_l2': 2, 'min_split_gain': 0.1, 'subsample': 0.8, 'min_data_in_leaf': 20, 'max_bin': 127, 'objective': 'binary', 'max_depth': 8, 'min_sum_hessian_in_leaf': 0.001}",0.642047044488
165,"{'num_leaves': 127, 'colsample_bytree': 0.7, 'lambda_l1': 0, 'learning_rate': 0.02, 'lambda_l2': 2, 'min_split_gain': 0.1, 'subsample': 0.8, 'min_data_in_leaf': 20, 'max_bin': 255, 'objective': 'binary', 'max_depth': 6, 'min_sum_hessian_in_leaf': 0.001}",0.642041651655
74,"{'num_leaves': 127, 'colsample_bytree': 0.7, 'lambda_l1': 0, 'learning_rate': 0.02, 'lambda_l2': 1, 'min_split_gain': 0, 'subsample': 0.8, 'min_data_in_leaf': 20, 'max_bin': 127, 'objective': 'binary', 'max_depth': 6, 'min_sum_hessian_in_leaf': 0.001}",0.642041623067
50,"{'num_leaves': 63, 'colsample_bytree': 0.7, 'lambda_l1': 1, 'learning_rate': 0.02, 'lambda_l2': 2, 'min_split_gain': 0.1, 'subsample': 0.8, 'min_data_in_leaf': 20, 'max_bin': 127, 'objective': 'binary', 'max_depth': 6, 'min_sum_hessian_in_leaf': 0.01}",0.642037262645
38,"{'num_leaves': 63, 'colsample_bytree': 0.7, 'lambda_l1': 1, 'learning_rate': 0.02, 'lambda_l2': 1, 'min_split_gain': 0.1, 'subsample': 0.8, 'min_data_in_leaf': 20, 'max_bin': 127, 'objective': 'binary', 'max_depth': -1, 'min_sum_hessian_in_leaf': 0.001}",0.642023563851
99,"{'num_leaves': 127, 'colsample_bytree': 0.7, 'lambda_l1': 1, 'learning_rate': 0.02, 'lambda_l2': 1, 'min_split_gain': 0, 'subsample': 0.8, 'min_data_in_leaf': 20, 'max_bin': 255, 'objective': 'binary', 'max_depth': 6, 'min_sum_hessian_in_leaf': 0.001}",0.642011406265
175,"{'num_leaves': 63, 'colsample_bytree': 0.7, 'lambda_l1': 1, 'learning_rate': 0.02, 'lambda_l2': 1, 'min_split_gain': 0.1, 'subsample': 0.8, 'min_data_in_leaf': 20, 'max_bin': 127, 'objective': 'binary', 'max_depth': 8, 'min_sum_hessian_in_leaf': 0.01}",0.64200617269
104,"{'num_leaves': 63, 'colsample_bytree': 0.7, 'lambda_l1': 0, 'learning_rate': 0.02, 'lambda_l2': 1, 'min_split_gain': 0, 'subsample': 0.8, 'min_data_in_leaf': 20, 'max_bin': 255, 'objective': 'binary', 'max_depth': 6, 'min_sum_hessian_in_leaf': 0.001}",0.641984008436
121,"{'num_leaves': 127, 'colsample_bytree': 0.7, 'lambda_l1': 0, 'learning_rate': 0.02, 'lambda_l2': 2, 'min_split_gain': 0, 'subsample': 0.8, 'min_data_in_leaf': 20, 'max_bin': 127, 'objective': 'binary', 'max_depth': -1, 'min_sum_hessian_in_leaf': 0.01}",0.641981388482
6,"{'num_leaves': 63, 'colsample_bytree': 0.7, 'lambda_l1': 1, 'learning_rate': 0.02, 'lambda_l2': 1, 'min_split_gain': 0, 'subsample': 0.8, 'min_data_in_leaf': 20, 'max_bin': 255, 'objective': 'binary', 'max_depth': -1, 'min_sum_hessian_in_leaf': 0.01}",0.641979856228
0,"{'num_leaves': 63, 'colsample_bytree': 0.7, 'lambda_l1': 1, 'learning_rate': 0.02, 'lambda_l2': 2, 'min_split_gain': 0, 'subsample': 0.8, 'min_data_in_leaf': 20, 'max_bin': 255, 'objective': 'binary', 'max_depth': -1, 'min_sum_hessian_in_leaf': 0.001}",0.641978341944
184,"{'num_leaves': 63, 'colsample_bytree': 0.7, 'lambda_l1': 1, 'learning_rate': 0.02, 'lambda_l2': 2, 'min_split_gain': 0.1, 'subsample': 0.8, 'min_data_in_leaf': 20, 'max_bin': 127, 'objective': 'binary', 'max_depth': 8, 'min_sum_hessian_in_leaf': 0.01}",0.641977230798
5,"{'num_leaves': 127, 'colsample_bytree': 0.7, 'lambda_l1': 0, 'learning_rate': 0.02, 'lambda_l2': 2, 'min_split_gain': 0, 'subsample': 0.8, 'min_data_in_leaf': 20, 'max_bin': 255, 'objective': 'binary', 'max_depth': 8, 'min_sum_hessian_in_leaf': 0.001}",0.641970808046
168,"{'num_leaves': 127, 'colsample_bytree': 0.7, 'lambda_l1': 0, 'learning_rate': 0.02, 'lambda_l2': 2, 'min_split_gain': 0, 'subsample': 0.8, 'min_data_in_leaf': 20, 'max_bin': 255, 'objective': 'binary', 'max_depth': -1, 'min_sum_hessian_in_leaf': 0.001}",0.641964047756
156,"{'num_leaves': 127, 'colsample_bytree': 0.7, 'lambda_l1': 1, 'learning_rate': 0.02, 'lambda_l2': 2, 'min_split_gain': 0, 'subsample': 0.8, 'min_data_in_leaf': 20, 'max_bin': 127, 'objective': 'binary', 'max_depth': 6, 'min_sum_hessian_in_leaf': 0.001}",0.641963067038
105,"{'num_leaves': 127, 'colsample_bytree': 0.7, 'lambda_l1': 1, 'learning_rate': 0.02, 'lambda_l2': 1, 'min_split_gain': 0.1, 'subsample': 0.8, 'min_data_in_leaf': 20, 'max_bin': 255, 'objective': 'binary', 'max_depth': 6, 'min_sum_hessian_in_leaf': 0.001}",0.641960926785
14,"{'num_leaves': 63, 'colsample_bytree': 0.7, 'lambda_l1': 1, 'learning_rate': 0.02, 'lambda_l2': 1, 'min_split_gain': 0.1, 'subsample': 0.8, 'min_data_in_leaf': 20, 'max_bin': 255, 'objective': 'binary', 'max_depth': 6, 'min_sum_hessian_in_leaf': 0.01}",0.641957036657
111,"{'num_leaves': 127, 'colsample_bytree': 0.7, 'lambda_l1': 1, 'learning_rate': 0.02, 'lambda_l2': 2, 'min_split_gain': 0.1, 'subsample': 0.8, 'min_data_in_leaf': 20, 'max_bin': 127, 'objective': 'binary', 'max_depth': 8, 'min_sum_hessian_in_leaf': 0.01}",0.641949403663
82,"{'num_leaves': 127, 'colsample_bytree': 0.7, 'lambda_l1': 1, 'learning_rate': 0.02, 'lambda_l2': 1, 'min_split_gain': 0.1, 'subsample': 0.8, 'min_data_in_leaf': 20, 'max_bin': 255, 'objective': 'binary', 'max_depth': -1, 'min_sum_hessian_in_leaf': 0.01}",0.641944530209
112,"{'num_leaves': 127, 'colsample_bytree': 0.7, 'lambda_l1': 1, 'learning_rate': 0.02, 'lambda_l2': 2, 'min_split_gain': 0.1, 'subsample': 0.8, 'min_data_in_leaf': 20, 'max_bin': 255, 'objective': 'binary', 'max_depth': 8, 'min_sum_hessian_in_leaf': 0.001}",0.641941369766
125,"{'num_leaves': 127, 'colsample_bytree': 0.7, 'lambda_l1': 1, 'learning_rate': 0.02, 'lambda_l2': 2, 'min_split_gain': 0, 'subsample': 0.8, 'min_data_in_leaf': 20, 'max_bin': 255, 'objective': 'binary', 'max_depth': -1, 'min_sum_hessian_in_leaf': 0.01}",0.641940672783
167,"{'num_leaves': 127, 'colsample_bytree': 0.7, 'lambda_l1': 1, 'learning_rate': 0.02, 'lambda_l2': 1, 'min_split_gain': 0.1, 'subsample': 0.8, 'min_data_in_leaf': 20, 'max_bin': 127, 'objective': 'binary', 'max_depth': -1, 'min_sum_hessian_in_leaf': 0.001}",0.641938265569
166,"{'num_leaves': 63, 'colsample_bytree': 0.7, 'lambda_l1': 0, 'learning_rate': 0.02, 'lambda_l2': 2, 'min_split_gain': 0.1, 'subsample': 0.8, 'min_data_in_leaf': 20, 'max_bin': 127, 'objective': 'binary', 'max_depth': 6, 'min_sum_hessian_in_leaf': 0.01}",0.641918259744
70,"{'num_leaves': 63, 'colsample_bytree': 0.7, 'lambda_l1': 1, 'learning_rate': 0.02, 'lambda_l2': 1, 'min_split_gain': 0.1, 'subsample': 0.8, 'min_data_in_leaf': 20, 'max_bin': 127, 'objective': 'binary', 'max_depth': 6, 'min_sum_hessian_in_leaf': 0.001}",0.641901015077
21,"{'num_leaves': 127, 'colsample_bytree': 0.7, 'lambda_l1': 1, 'learning_rate': 0.02, 'lambda_l2': 2, 'min_split_gain': 0, 'subsample': 0.8, 'min_data_in_leaf': 20, 'max_bin': 255, 'objective': 'binary', 'max_depth': 6, 'min_sum_hessian_in_leaf': 0.001}",0.641872250023
63,"{'num_leaves': 63, 'colsample_bytree': 0.7, 'lambda_l1': 1, 'learning_rate': 0.02, 'lambda_l2': 2, 'min_split_gain': 0.1, 'subsample': 0.8, 'min_data_in_leaf': 20, 'max_bin': 255, 'objective': 'binary', 'max_depth': 8, 'min_sum_hessian_in_leaf': 0.001}",0.641868148948
1,"{'num_leaves': 63, 'colsample_bytree': 0.7, 'lambda_l1': 1, 'learning_rate': 0.02, 'lambda_l2': 1, 'min_split_gain': 0.1, 'subsample': 0.8, 'min_data_in_leaf': 20, 'max_bin': 255, 'objective': 'binary', 'max_depth': -1, 'min_sum_hessian_in_leaf': 0.001}",0.641858208671
56,"{'num_leaves': 127, 'colsample_bytree': 0.7, 'lambda_l1': 0, 'learning_rate': 0.02, 'lambda_l2': 1, 'min_split_gain': 0, 'subsample': 0.8, 'min_data_in_leaf': 20, 'max_bin': 127, 'objective': 'binary', 'max_depth': 8, 'min_sum_hessian_in_leaf': 0.01}",0.641851552402
25,"{'num_leaves': 63, 'colsample_bytree': 0.7, 'lambda_l1': 0, 'learning_rate': 0.02, 'lambda_l2': 1, 'min_split_gain': 0.1, 'subsample': 0.8, 'min_data_in_leaf': 20, 'max_bin': 127, 'objective': 'binary', 'max_depth': 6, 'min_sum_hessian_in_leaf': 0.001}",0.641847963769
52,"{'num_leaves': 127, 'colsample_bytree': 0.7, 'lambda_l1': 0, 'learning_rate': 0.02, 'lambda_l2': 2, 'min_split_gain': 0, 'subsample': 0.8, 'min_data_in_leaf': 20, 'max_bin': 127, 'objective': 'binary', 'max_depth': -1, 'min_sum_hessian_in_leaf': 0.001}",0.641844614059
44,"{'num_leaves': 63, 'colsample_bytree': 0.7, 'lambda_l1': 1, 'learning_rate': 0.02, 'lambda_l2': 2, 'min_split_gain': 0, 'subsample': 0.8, 'min_data_in_leaf': 20, 'max_bin': 127, 'objective': 'binary', 'max_depth': 6, 'min_sum_hessian_in_leaf': 0.001}",0.641837947022
55,"{'num_leaves': 127, 'colsample_bytree': 0.7, 'lambda_l1': 0, 'learning_rate': 0.02, 'lambda_l2': 1, 'min_split_gain': 0.1, 'subsample': 0.8, 'min_data_in_leaf': 20, 'max_bin': 255, 'objective': 'binary', 'max_depth': 6, 'min_sum_hessian_in_leaf': 0.001}",0.641836979023
45,"{'num_leaves': 127, 'colsample_bytree': 0.7, 'lambda_l1': 0, 'learning_rate': 0.02, 'lambda_l2': 1, 'min_split_gain': 0, 'subsample': 0.8, 'min_data_in_leaf': 20, 'max_bin': 255, 'objective': 'binary', 'max_depth': 6, 'min_sum_hessian_in_leaf': 0.001}",0.641832304542
39,"{'num_leaves': 127, 'colsample_bytree': 0.7, 'lambda_l1': 1, 'learning_rate': 0.02, 'lambda_l2': 1, 'min_split_gain': 0.1, 'subsample': 0.8, 'min_data_in_leaf': 20, 'max_bin': 255, 'objective': 'binary', 'max_depth': 8, 'min_sum_hessian_in_leaf': 0.01}",0.641812799939
24,"{'num_leaves': 63, 'colsample_bytree': 0.7, 'lambda_l1': 0, 'learning_rate': 0.02, 'lambda_l2': 2, 'min_split_gain': 0, 'subsample': 0.8, 'min_data_in_leaf': 20, 'max_bin': 255, 'objective': 'binary', 'max_depth': -1, 'min_sum_hessian_in_leaf': 0.001}",0.641808950589
100,"{'num_leaves': 63, 'colsample_bytree': 0.7, 'lambda_l1': 0, 'learning_rate': 0.02, 'lambda_l2': 2, 'min_split_gain': 0, 'subsample': 0.8, 'min_data_in_leaf': 20, 'max_bin': 255, 'objective': 'binary', 'max_depth': 8, 'min_sum_hessian_in_leaf': 0.01}",0.641768987893
54,"{'num_leaves': 127, 'colsample_bytree': 0.7, 'lambda_l1': 0, 'learning_rate': 0.02, 'lambda_l2': 2, 'min_split_gain': 0.1, 'subsample': 0.8, 'min_data_in_leaf': 20, 'max_bin': 127, 'objective': 'binary', 'max_depth': 8, 'min_sum_hessian_in_leaf': 0.01}",0.641768193162
137,"{'num_leaves': 127, 'colsample_bytree': 0.7, 'lambda_l1': 0, 'learning_rate': 0.02, 'lambda_l2': 2, 'min_split_gain': 0.1, 'subsample': 0.8, 'min_data_in_leaf': 20, 'max_bin': 255, 'objective': 'binary', 'max_depth': -1, 'min_sum_hessian_in_leaf': 0.01}",0.641765245822
28,"{'num_leaves': 127, 'colsample_bytree': 0.7, 'lambda_l1': 0, 'learning_rate': 0.02, 'lambda_l2': 2, 'min_split_gain': 0.1, 'subsample': 0.8, 'min_data_in_leaf': 20, 'max_bin': 255, 'objective': 'binary', 'max_depth': -1, 'min_sum_hessian_in_leaf': 0.001}",0.641755441848
115,"{'num_leaves': 63, 'colsample_bytree': 0.7, 'lambda_l1': 0, 'learning_rate': 0.02, 'lambda_l2': 2, 'min_split_gain': 0, 'subsample': 0.8, 'min_data_in_leaf': 20, 'max_bin': 127, 'objective': 'binary', 'max_depth': 8, 'min_sum_hessian_in_leaf': 0.01}",0.641742894874
180,"{'num_leaves': 127, 'colsample_bytree': 0.7, 'lambda_l1': 1, 'learning_rate': 0.02, 'lambda_l2': 1, 'min_split_gain': 0, 'subsample': 0.8, 'min_data_in_leaf': 20, 'max_bin': 127, 'objective': 'binary', 'max_depth': -1, 'min_sum_hessian_in_leaf': 0.01}",0.641712963279
187,"{'num_leaves': 127, 'colsample_bytree': 0.7, 'lambda_l1': 1, 'learning_rate': 0.02, 'lambda_l2': 1, 'min_split_gain': 0, 'subsample': 0.8, 'min_data_in_leaf': 20, 'max_bin': 255, 'objective': 'binary', 'max_depth': 8, 'min_sum_hessian_in_leaf': 0.001}",0.641704784727
139,"{'num_leaves': 63, 'colsample_bytree': 0.7, 'lambda_l1': 1, 'learning_rate': 0.02, 'lambda_l2': 2, 'min_split_gain': 0.1, 'subsample': 0.8, 'min_data_in_leaf': 20, 'max_bin': 255, 'objective': 'binary', 'max_depth': -1, 'min_sum_hessian_in_leaf': 0.001}",0.641701494311
148,"{'num_leaves': 63, 'colsample_bytree': 0.7, 'lambda_l1': 1, 'learning_rate': 0.02, 'lambda_l2': 2, 'min_split_gain': 0.1, 'subsample': 0.8, 'min_data_in_leaf': 20, 'max_bin': 255, 'objective': 'binary', 'max_depth': -1, 'min_sum_hessian_in_leaf': 0.01}",0.641699958176
85,"{'num_leaves': 127, 'colsample_bytree': 0.7, 'lambda_l1': 0, 'learning_rate': 0.02, 'lambda_l2': 1, 'min_split_gain': 0.1, 'subsample': 0.8, 'min_data_in_leaf': 20, 'max_bin': 255, 'objective': 'binary', 'max_depth': -1, 'min_sum_hessian_in_leaf': 0.01}",0.641689623892
16,"{'num_leaves': 127, 'colsample_bytree': 0.7, 'lambda_l1': 0, 'learning_rate': 0.02, 'lambda_l2': 1, 'min_split_gain': 0.1, 'subsample': 0.8, 'min_data_in_leaf': 20, 'max_bin': 255, 'objective': 'binary', 'max_depth': -1, 'min_sum_hessian_in_leaf': 0.001}",0.641681650368
126,"{'num_leaves': 63, 'colsample_bytree': 0.7, 'lambda_l1': 0, 'learning_rate': 0.02, 'lambda_l2': 1, 'min_split_gain': 0.1, 'subsample': 0.8, 'min_data_in_leaf': 20, 'max_bin': 255, 'objective': 'binary', 'max_depth': 6, 'min_sum_hessian_in_leaf': 0.001}",0.641681539871
88,"{'num_leaves': 127, 'colsample_bytree': 0.7, 'lambda_l1': 0, 'learning_rate': 0.02, 'lambda_l2': 2, 'min_split_gain': 0.1, 'subsample': 0.8, 'min_data_in_leaf': 20, 'max_bin': 255, 'objective': 'binary', 'max_depth': 8, 'min_sum_hessian_in_leaf': 0.01}",0.641651157821
17,"{'num_leaves': 127, 'colsample_bytree': 0.7, 'lambda_l1': 0, 'learning_rate': 0.02, 'lambda_l2': 2, 'min_split_gain': 0, 'subsample': 0.8, 'min_data_in_leaf': 20, 'max_bin': 127, 'objective': 'binary', 'max_depth': 6, 'min_sum_hessian_in_leaf': 0.01}",0.641650531462
57,"{'num_leaves': 127, 'colsample_bytree': 0.7, 'lambda_l1': 0, 'learning_rate': 0.02, 'lambda_l2': 1, 'min_split_gain': 0, 'subsample': 0.8, 'min_data_in_leaf': 20, 'max_bin': 255, 'objective': 'binary', 'max_depth': 8, 'min_sum_hessian_in_leaf': 0.01}",0.641643672796
182,"{'num_leaves': 63, 'colsample_bytree': 0.7, 'lambda_l1': 0, 'learning_rate': 0.02, 'lambda_l2': 2, 'min_split_gain': 0.1, 'subsample': 0.8, 'min_data_in_leaf': 20, 'max_bin': 255, 'objective': 'binary', 'max_depth': -1, 'min_sum_hessian_in_leaf': 0.001}",0.641641412443
78,"{'num_leaves': 127, 'colsample_bytree': 0.7, 'lambda_l1': 1, 'learning_rate': 0.02, 'lambda_l2': 2, 'min_split_gain': 0, 'subsample': 0.8, 'min_data_in_leaf': 20, 'max_bin': 127, 'objective': 'binary', 'max_depth': 8, 'min_sum_hessian_in_leaf': 0.01}",0.641640700794
159,"{'num_leaves': 127, 'colsample_bytree': 0.7, 'lambda_l1': 1, 'learning_rate': 0.02, 'lambda_l2': 1, 'min_split_gain': 0.1, 'subsample': 0.8, 'min_data_in_leaf': 20, 'max_bin': 255, 'objective': 'binary', 'max_depth': 8, 'min_sum_hessian_in_leaf': 0.001}",0.641616195059
41,"{'num_leaves': 63, 'colsample_bytree': 0.7, 'lambda_l1': 0, 'learning_rate': 0.02, 'lambda_l2': 1, 'min_split_gain': 0, 'subsample': 0.8, 'min_data_in_leaf': 20, 'max_bin': 255, 'objective': 'binary', 'max_depth': -1, 'min_sum_hessian_in_leaf': 0.001}",0.641609461856
43,"{'num_leaves': 127, 'colsample_bytree': 0.7, 'lambda_l1': 0, 'learning_rate': 0.02, 'lambda_l2': 2, 'min_split_gain': 0, 'subsample': 0.8, 'min_data_in_leaf': 20, 'max_bin': 127, 'objective': 'binary', 'max_depth': 8, 'min_sum_hessian_in_leaf': 0.001}",0.64160746875
163,"{'num_leaves': 127, 'colsample_bytree': 0.7, 'lambda_l1': 0, 'learning_rate': 0.02, 'lambda_l2': 2, 'min_split_gain': 0, 'subsample': 0.8, 'min_data_in_leaf': 20, 'max_bin': 255, 'objective': 'binary', 'max_depth': -1, 'min_sum_hessian_in_leaf': 0.01}",0.641601596119
12,"{'num_leaves': 63, 'colsample_bytree': 0.7, 'lambda_l1': 1, 'learning_rate': 0.02, 'lambda_l2': 1, 'min_split_gain': 0, 'subsample': 0.8, 'min_data_in_leaf': 20, 'max_bin': 127, 'objective': 'binary', 'max_depth': 8, 'min_sum_hessian_in_leaf': 0.01}",0.641556031723
107,"{'num_leaves': 127, 'colsample_bytree': 0.7, 'lambda_l1': 1, 'learning_rate': 0.02, 'lambda_l2': 1, 'min_split_gain': 0.1, 'subsample': 0.8, 'min_data_in_leaf': 20, 'max_bin': 127, 'objective': 'binary', 'max_depth': 8, 'min_sum_hessian_in_leaf': 0.01}",0.641541511799
150,"{'num_leaves': 127, 'colsample_bytree': 0.7, 'lambda_l1': 0, 'learning_rate': 0.02, 'lambda_l2': 1, 'min_split_gain': 0, 'subsample': 0.8, 'min_data_in_leaf': 20, 'max_bin': 255, 'objective': 'binary', 'max_depth': 8, 'min_sum_hessian_in_leaf': 0.001}",0.641536306209
140,"{'num_leaves': 127, 'colsample_bytree': 0.7, 'lambda_l1': 1, 'learning_rate': 0.02, 'lambda_l2': 2, 'min_split_gain': 0.1, 'subsample': 0.8, 'min_data_in_leaf': 20, 'max_bin': 127, 'objective': 'binary', 'max_depth': -1, 'min_sum_hessian_in_leaf': 0.01}",0.641528722719
176,"{'num_leaves': 127, 'colsample_bytree': 0.7, 'lambda_l1': 0, 'learning_rate': 0.02, 'lambda_l2': 2, 'min_split_gain': 0, 'subsample': 0.8, 'min_data_in_leaf': 20, 'max_bin': 127, 'objective': 'binary', 'max_depth': 6, 'min_sum_hessian_in_leaf': 0.001}",0.641508209888
123,"{'num_leaves': 63, 'colsample_bytree': 0.7, 'lambda_l1': 1, 'learning_rate': 0.02, 'lambda_l2': 1, 'min_split_gain': 0, 'subsample': 0.8, 'min_data_in_leaf': 20, 'max_bin': 127, 'objective': 'binary', 'max_depth': -1, 'min_sum_hessian_in_leaf': 0.01}",0.641500511051
101,"{'num_leaves': 127, 'colsample_bytree': 0.7, 'lambda_l1': 1, 'learning_rate': 0.02, 'lambda_l2': 2, 'min_split_gain': 0, 'subsample': 0.8, 'min_data_in_leaf': 20, 'max_bin': 127, 'objective': 'binary', 'max_depth': -1, 'min_sum_hessian_in_leaf': 0.001}",0.6414867384
13,"{'num_leaves': 127, 'colsample_bytree': 0.7, 'lambda_l1': 0, 'learning_rate': 0.02, 'lambda_l2': 1, 'min_split_gain': 0.1, 'subsample': 0.8, 'min_data_in_leaf': 20, 'max_bin': 127, 'objective': 'binary', 'max_depth': 8, 'min_sum_hessian_in_leaf': 0.001}",0.641472608201
76,"{'num_leaves': 127, 'colsample_bytree': 0.7, 'lambda_l1': 1, 'learning_rate': 0.02, 'lambda_l2': 1, 'min_split_gain': 0.1, 'subsample': 0.8, 'min_data_in_leaf': 20, 'max_bin': 127, 'objective': 'binary', 'max_depth': -1, 'min_sum_hessian_in_leaf': 0.01}",0.641458135767
32,"{'num_leaves': 127, 'colsample_bytree': 0.7, 'lambda_l1': 0, 'learning_rate': 0.02, 'lambda_l2': 2, 'min_split_gain': 0.1, 'subsample': 0.8, 'min_data_in_leaf': 20, 'max_bin': 127, 'objective': 'binary', 'max_depth': 8, 'min_sum_hessian_in_leaf': 0.001}",0.641410052722
174,"{'num_leaves': 127, 'colsample_bytree': 0.7, 'lambda_l1': 1, 'learning_rate': 0.02, 'lambda_l2': 2, 'min_split_gain': 0, 'subsample': 0.8, 'min_data_in_leaf': 20, 'max_bin': 255, 'objective': 'binary', 'max_depth': 8, 'min_sum_hessian_in_leaf': 0.01}",0.641406532382
149,"{'num_leaves': 127, 'colsample_bytree': 0.7, 'lambda_l1': 0, 'learning_rate': 0.02, 'lambda_l2': 2, 'min_split_gain': 0, 'subsample': 0.8, 'min_data_in_leaf': 20, 'max_bin': 255, 'objective': 'binary', 'max_depth': 8, 'min_sum_hessian_in_leaf': 0.01}",0.641367064505
48,"{'num_leaves': 127, 'colsample_bytree': 0.7, 'lambda_l1': 0, 'learning_rate': 0.02, 'lambda_l2': 1, 'min_split_gain': 0.1, 'subsample': 0.8, 'min_data_in_leaf': 20, 'max_bin': 127, 'objective': 'binary', 'max_depth': 8, 'min_sum_hessian_in_leaf': 0.01}",0.641365727051
141,"{'num_leaves': 127, 'colsample_bytree': 0.7, 'lambda_l1': 1, 'learning_rate': 0.02, 'lambda_l2': 1, 'min_split_gain': 0, 'subsample': 0.8, 'min_data_in_leaf': 20, 'max_bin': 255, 'objective': 'binary', 'max_depth': -1, 'min_sum_hessian_in_leaf': 0.001}",0.641312139601
135,"{'num_leaves': 127, 'colsample_bytree': 0.7, 'lambda_l1': 0, 'learning_rate': 0.02, 'lambda_l2': 2, 'min_split_gain': 0, 'subsample': 0.8, 'min_data_in_leaf': 20, 'max_bin': 127, 'objective': 'binary', 'max_depth': 8, 'min_sum_hessian_in_leaf': 0.01}",0.641296036158
162,"{'num_leaves': 127, 'colsample_bytree': 0.7, 'lambda_l1': 1, 'learning_rate': 0.02, 'lambda_l2': 2, 'min_split_gain': 0, 'subsample': 0.8, 'min_data_in_leaf': 20, 'max_bin': 127, 'objective': 'binary', 'max_depth': 8, 'min_sum_hessian_in_leaf': 0.001}",0.641276316392
188,"{'num_leaves': 127, 'colsample_bytree': 0.7, 'lambda_l1': 0, 'learning_rate': 0.02, 'lambda_l2': 2, 'min_split_gain': 0.1, 'subsample': 0.8, 'min_data_in_leaf': 20, 'max_bin': 127, 'objective': 'binary', 'max_depth': -1, 'min_sum_hessian_in_leaf': 0.01}",0.641258446083
47,"{'num_leaves': 63, 'colsample_bytree': 0.7, 'lambda_l1': 0, 'learning_rate': 0.02, 'lambda_l2': 1, 'min_split_gain': 0, 'subsample': 0.8, 'min_data_in_leaf': 20, 'max_bin': 127, 'objective': 'binary', 'max_depth': 6, 'min_sum_hessian_in_leaf': 0.001}",0.641247441926
20,"{'num_leaves': 127, 'colsample_bytree': 0.7, 'lambda_l1': 0, 'learning_rate': 0.02, 'lambda_l2': 1, 'min_split_gain': 0, 'subsample': 0.8, 'min_data_in_leaf': 20, 'max_bin': 255, 'objective': 'binary', 'max_depth': -1, 'min_sum_hessian_in_leaf': 0.001}",0.641236553157
143,"{'num_leaves': 127, 'colsample_bytree': 0.7, 'lambda_l1': 1, 'learning_rate': 0.02, 'lambda_l2': 2, 'min_split_gain': 0, 'subsample': 0.8, 'min_data_in_leaf': 20, 'max_bin': 255, 'objective': 'binary', 'max_depth': -1, 'min_sum_hessian_in_leaf': 0.001}",0.641225843905
42,"{'num_leaves': 127, 'colsample_bytree': 0.7, 'lambda_l1': 1, 'learning_rate': 0.02, 'lambda_l2': 1, 'min_split_gain': 0, 'subsample': 0.8, 'min_data_in_leaf': 20, 'max_bin': 255, 'objective': 'binary', 'max_depth': 8, 'min_sum_hessian_in_leaf': 0.01}",0.641222672782
64,"{'num_leaves': 127, 'colsample_bytree': 0.7, 'lambda_l1': 1, 'learning_rate': 0.02, 'lambda_l2': 1, 'min_split_gain': 0, 'subsample': 0.8, 'min_data_in_leaf': 20, 'max_bin': 255, 'objective': 'binary', 'max_depth': -1, 'min_sum_hessian_in_leaf': 0.01}",0.641209287096
93,"{'num_leaves': 127, 'colsample_bytree': 0.7, 'lambda_l1': 1, 'learning_rate': 0.02, 'lambda_l2': 2, 'min_split_gain': 0.1, 'subsample': 0.8, 'min_data_in_leaf': 20, 'max_bin': 127, 'objective': 'binary', 'max_depth': -1, 'min_sum_hessian_in_leaf': 0.001}",0.641195999311
120,"{'num_leaves': 127, 'colsample_bytree': 0.7, 'lambda_l1': 1, 'learning_rate': 0.02, 'lambda_l2': 2, 'min_split_gain': 0.1, 'subsample': 0.8, 'min_data_in_leaf': 20, 'max_bin': 255, 'objective': 'binary', 'max_depth': -1, 'min_sum_hessian_in_leaf': 0.01}",0.64115075159
67,"{'num_leaves': 63, 'colsample_bytree': 0.7, 'lambda_l1': 0, 'learning_rate': 0.02, 'lambda_l2': 1, 'min_split_gain': 0, 'subsample': 0.8, 'min_data_in_leaf': 20, 'max_bin': 255, 'objective': 'binary', 'max_depth': 8, 'min_sum_hessian_in_leaf': 0.001}",0.64111061634
84,"{'num_leaves': 63, 'colsample_bytree': 0.7, 'lambda_l1': 0, 'learning_rate': 0.02, 'lambda_l2': 1, 'min_split_gain': 0, 'subsample': 0.8, 'min_data_in_leaf': 20, 'max_bin': 255, 'objective': 'binary', 'max_depth': 8, 'min_sum_hessian_in_leaf': 0.01}",0.641089274069
75,"{'num_leaves': 127, 'colsample_bytree': 0.7, 'lambda_l1': 1, 'learning_rate': 0.02, 'lambda_l2': 1, 'min_split_gain': 0, 'subsample': 0.8, 'min_data_in_leaf': 20, 'max_bin': 127, 'objective': 'binary', 'max_depth': -1, 'min_sum_hessian_in_leaf': 0.001}",0.641046822238
68,"{'num_leaves': 127, 'colsample_bytree': 0.7, 'lambda_l1': 0, 'learning_rate': 0.02, 'lambda_l2': 2, 'min_split_gain': 0.1, 'subsample': 0.8, 'min_data_in_leaf': 20, 'max_bin': 127, 'objective': 'binary', 'max_depth': -1, 'min_sum_hessian_in_leaf': 0.001}",0.640996078693
11,"{'num_leaves': 63, 'colsample_bytree': 0.7, 'lambda_l1': 0, 'learning_rate': 0.02, 'lambda_l2': 1, 'min_split_gain': 0, 'subsample': 0.8, 'min_data_in_leaf': 20, 'max_bin': 127, 'objective': 'binary', 'max_depth': -1, 'min_sum_hessian_in_leaf': 0.01}",0.640986712693
102,"{'num_leaves': 63, 'colsample_bytree': 0.7, 'lambda_l1': 0, 'learning_rate': 0.02, 'lambda_l2': 1, 'min_split_gain': 0.1, 'subsample': 0.8, 'min_data_in_leaf': 20, 'max_bin': 127, 'objective': 'binary', 'max_depth': 8, 'min_sum_hessian_in_leaf': 0.001}",0.640937953347
91,"{'num_leaves': 63, 'colsample_bytree': 0.7, 'lambda_l1': 0, 'learning_rate': 0.02, 'lambda_l2': 1, 'min_split_gain': 0.1, 'subsample': 0.8, 'min_data_in_leaf': 20, 'max_bin': 255, 'objective': 'binary', 'max_depth': 8, 'min_sum_hessian_in_leaf': 0.01}",0.640910896753
189,"{'num_leaves': 63, 'colsample_bytree': 0.7, 'lambda_l1': 0, 'learning_rate': 0.02, 'lambda_l2': 1, 'min_split_gain': 0.1, 'subsample': 0.8, 'min_data_in_leaf': 20, 'max_bin': 127, 'objective': 'binary', 'max_depth': 8, 'min_sum_hessian_in_leaf': 0.01}",0.640879409292
160,"{'num_leaves': 127, 'colsample_bytree': 0.7, 'lambda_l1': 0, 'learning_rate': 0.02, 'lambda_l2': 1, 'min_split_gain': 0.1, 'subsample': 0.8, 'min_data_in_leaf': 20, 'max_bin': 127, 'objective': 'binary', 'max_depth': -1, 'min_sum_hessian_in_leaf': 0.001}",0.640831344055
181,"{'num_leaves': 63, 'colsample_bytree': 0.7, 'lambda_l1': 0, 'learning_rate': 0.02, 'lambda_l2': 1, 'min_split_gain': 0.1, 'subsample': 0.8, 'min_data_in_leaf': 20, 'max_bin': 255, 'objective': 'binary', 'max_depth': -1, 'min_sum_hessian_in_leaf': 0.01}",0.640819940148
94,"{'num_leaves': 63, 'colsample_bytree': 0.7, 'lambda_l1': 0, 'learning_rate': 0.02, 'lambda_l2': 1, 'min_split_gain': 0.1, 'subsample': 0.8, 'min_data_in_leaf': 20, 'max_bin': 127, 'objective': 'binary', 'max_depth': -1, 'min_sum_hessian_in_leaf': 0.01}",0.6407390484
172,"{'num_leaves': 127, 'colsample_bytree': 0.7, 'lambda_l1': 0, 'learning_rate': 0.02, 'lambda_l2': 1, 'min_split_gain': 0, 'subsample': 0.8, 'min_data_in_leaf': 20, 'max_bin': 255, 'objective': 'binary', 'max_depth': -1, 'min_sum_hessian_in_leaf': 0.01}",0.640687764836
96,"{'num_leaves': 63, 'colsample_bytree': 0.7, 'lambda_l1': 0, 'learning_rate': 0.02, 'lambda_l2': 2, 'min_split_gain': 0.1, 'subsample': 0.8, 'min_data_in_leaf': 20, 'max_bin': 127, 'objective': 'binary', 'max_depth': 8, 'min_sum_hessian_in_leaf': 0.01}",0.640653752728
46,"{'num_leaves': 127, 'colsample_bytree': 0.7, 'lambda_l1': 0, 'learning_rate': 0.02, 'lambda_l2': 1, 'min_split_gain': 0, 'subsample': 0.8, 'min_data_in_leaf': 20, 'max_bin': 127, 'objective': 'binary', 'max_depth': 8, 'min_sum_hessian_in_leaf': 0.001}",0.640651152929
92,"{'num_leaves': 63, 'colsample_bytree': 0.7, 'lambda_l1': 0, 'learning_rate': 0.02, 'lambda_l2': 1, 'min_split_gain': 0.1, 'subsample': 0.8, 'min_data_in_leaf': 20, 'max_bin': 255, 'objective': 'binary', 'max_depth': 6, 'min_sum_hessian_in_leaf': 0.01}",0.640563846417
129,"{'num_leaves': 127, 'colsample_bytree': 0.7, 'lambda_l1': 0, 'learning_rate': 0.02, 'lambda_l2': 1, 'min_split_gain': 0.1, 'subsample': 0.8, 'min_data_in_leaf': 20, 'max_bin': 127, 'objective': 'binary', 'max_depth': -1, 'min_sum_hessian_in_leaf': 0.01}",0.64044194311
69,"{'num_leaves': 63, 'colsample_bytree': 0.7, 'lambda_l1': 0, 'learning_rate': 0.02, 'lambda_l2': 1, 'min_split_gain': 0, 'subsample': 0.8, 'min_data_in_leaf': 20, 'max_bin': 127, 'objective': 'binary', 'max_depth': 8, 'min_sum_hessian_in_leaf': 0.01}",0.64043102568
113,"{'num_leaves': 63, 'colsample_bytree': 0.7, 'lambda_l1': 0, 'learning_rate': 0.02, 'lambda_l2': 1, 'min_split_gain': 0.1, 'subsample': 0.8, 'min_data_in_leaf': 20, 'max_bin': 127, 'objective': 'binary', 'max_depth': 6, 'min_sum_hessian_in_leaf': 0.01}",0.640396002785
177,"{'num_leaves': 127, 'colsample_bytree': 0.7, 'lambda_l1': 0, 'learning_rate': 0.02, 'lambda_l2': 1, 'min_split_gain': 0, 'subsample': 0.8, 'min_data_in_leaf': 20, 'max_bin': 127, 'objective': 'binary', 'max_depth': 6, 'min_sum_hessian_in_leaf': 0.01}",0.640390517685
36,"{'num_leaves': 127, 'colsample_bytree': 0.7, 'lambda_l1': 0, 'learning_rate': 0.02, 'lambda_l2': 1, 'min_split_gain': 0.1, 'subsample': 0.8, 'min_data_in_leaf': 20, 'max_bin': 255, 'objective': 'binary', 'max_depth': 8, 'min_sum_hessian_in_leaf': 0.001}",0.640287265376
51,"{'num_leaves': 63, 'colsample_bytree': 0.7, 'lambda_l1': 0, 'learning_rate': 0.02, 'lambda_l2': 1, 'min_split_gain': 0, 'subsample': 0.8, 'min_data_in_leaf': 20, 'max_bin': 127, 'objective': 'binary', 'max_depth': 6, 'min_sum_hessian_in_leaf': 0.01}",0.640240543862
131,"{'num_leaves': 63, 'colsample_bytree': 0.7, 'lambda_l1': 0, 'learning_rate': 0.02, 'lambda_l2': 1, 'min_split_gain': 0.1, 'subsample': 0.8, 'min_data_in_leaf': 20, 'max_bin': 255, 'objective': 'binary', 'max_depth': 8, 'min_sum_hessian_in_leaf': 0.001}",0.640149407461
144,"{'num_leaves': 63, 'colsample_bytree': 0.7, 'lambda_l1': 0, 'learning_rate': 0.02, 'lambda_l2': 1, 'min_split_gain': 0, 'subsample': 0.8, 'min_data_in_leaf': 20, 'max_bin': 255, 'objective': 'binary', 'max_depth': -1, 'min_sum_hessian_in_leaf': 0.01}",0.640147943746
103,"{'num_leaves': 63, 'colsample_bytree': 0.7, 'lambda_l1': 0, 'learning_rate': 0.02, 'lambda_l2': 1, 'min_split_gain': 0, 'subsample': 0.8, 'min_data_in_leaf': 20, 'max_bin': 255, 'objective': 'binary', 'max_depth': 6, 'min_sum_hessian_in_leaf': 0.01}",0.640140707278
22,"{'num_leaves': 127, 'colsample_bytree': 0.7, 'lambda_l1': 1, 'learning_rate': 0.02, 'lambda_l2': 1, 'min_split_gain': 0.1, 'subsample': 0.8, 'min_data_in_leaf': 20, 'max_bin': 127, 'objective': 'binary', 'max_depth': 6, 'min_sum_hessian_in_leaf': 0.01}",0.640037880936
73,"{'num_leaves': 127, 'colsample_bytree': 0.7, 'lambda_l1': 0, 'learning_rate': 0.02, 'lambda_l2': 1, 'min_split_gain': 0, 'subsample': 0.8, 'min_data_in_leaf': 20, 'max_bin': 127, 'objective': 'binary', 'max_depth': -1, 'min_sum_hessian_in_leaf': 0.01}",0.63967805975
83,"{'num_leaves': 127, 'colsample_bytree': 0.7, 'lambda_l1': 0, 'learning_rate': 0.02, 'lambda_l2': 1, 'min_split_gain': 0, 'subsample': 0.8, 'min_data_in_leaf': 20, 'max_bin': 127, 'objective': 'binary', 'max_depth': -1, 'min_sum_hessian_in_leaf': 0.001}",0.63933509678
191,"{'num_leaves': 63, 'colsample_bytree': 0.7, 'lambda_l1': 0, 'learning_rate': 0.02, 'lambda_l2': 1, 'min_split_gain': 0.1, 'subsample': 0.8, 'min_data_in_leaf': 20, 'max_bin': 127, 'objective': 'binary', 'max_depth': -1, 'min_sum_hessian_in_leaf': 0.001}",0.639201860866
34,"{'num_leaves': 63, 'colsample_bytree': 0.7, 'lambda_l1': 0, 'learning_rate': 0.02, 'lambda_l2': 1, 'min_split_gain': 0, 'subsample': 0.8, 'min_data_in_leaf': 20, 'max_bin': 127, 'objective': 'binary', 'max_depth': -1, 'min_sum_hessian_in_leaf': 0.001}",0.638875868315
66,"{'num_leaves': 63, 'colsample_bytree': 0.7, 'lambda_l1': 0, 'learning_rate': 0.02, 'lambda_l2': 1, 'min_split_gain': 0, 'subsample': 0.8, 'min_data_in_leaf': 20, 'max_bin': 127, 'objective': 'binary', 'max_depth': 8, 'min_sum_hessian_in_leaf': 0.001}",0.638817952951
127,"{'num_leaves': 63, 'colsample_bytree': 0.7, 'lambda_l1': 0, 'learning_rate': 0.02, 'lambda_l2': 1, 'min_split_gain': 0.1, 'subsample': 0.8, 'min_data_in_leaf': 20, 'max_bin': 255, 'objective': 'binary', 'max_depth': -1, 'min_sum_hessian_in_leaf': 0.001}",0.638058989202
